All Label same coordinate :

Label-TrackSize / Label-WaveForm / Label-Shuttle / Label-Bank
Label-Scrub

		x:81 , y:128
		
Buttons On/Off
	
	Hide-Right-Off			x:455 , y:99
	Hide-Left-Off			x:46 , y:29
	Bt-Scrub-Off			x:81 , y:172
	Bt-Shuttle-Off			x:154 , y:172
	Bt-Bank-Off			x:228 , y:172
	Bt-TrackSize-Off		x:302 , y:172
	Bt-WaveForm-off			x:374 , y:172